…
Geometry locations can be retrieved at `nodes` or `elements`.

``` r
epts = fvcom::fvcom_elems(x)
epts
```

    ## # A tibble: 90,415 × 3
    ##     elem   lon   lat
    ##    <int> <dbl> <dbl>
    ##  1     1 -59.9  46.1
    ##  2     2 -59.8  46.1
    ##  3     3 -59.8  46.1
    ##  4     4 -59.8  46.1
    ##  5     5 -59.8  46.0
    ##  6     6 -59.7  46.0
    ##  7     7 -59.7  46.0
    ##  8     8 -59.7  45.9
    ##  9     9 -59.6  45.9
    ## 10    10 -59.6  45.9
    ## # … with 90,405 more rows
…
