…
## Node and Element locations

Use the functions `fvcom_nodes` and `fvcom_elems` to extract location
information as either `xy` or `lonlat` pairs. Note we get both xy and
lonlat here for nodes. The same can be had for elements.

``` r
dplyr::left_join(fvcom::fvcom_nodes(x, what = 'lonlat'),                   
                 fvcom::fvcom_nodes(x, what = 'xy'), by = "node") 
```

    ## # A tibble: 138,567 × 5
    ##     node       lon       lat         x         y
    ##    <int> <dbl[1d]> <dbl[1d]> <dbl[1d]> <dbl[1d]>
    ##  1     1     -59.8      46.1  1699880.   420500.
    ##  2     2     -59.8      46.1  1705180.   414890.
    ##  3     3     -59.7      46.0  1709910.   409690.
    ##  4     4     -59.6      46.0  1715778    403368.
    ##  5     5     -59.6      45.9  1722603.   395907.
    ##  6     6     -59.5      45.8  1730039.   387611.
    ##  7     7     -59.4      45.7  1737004.   380188.
    ##  8     8     -59.3      45.7  1744943.   371707 
    ##  9     9     -59.2      45.6  1752036    363693.
    ## 10    10     -59.1      45.5  1761284    353679.
    ## # ℹ 138,557 more rows
…
## Variables

Variables (the oceanographic ones) can be extract by node or element. It
is possible to select a subset, but the operation on the whole dataset
is quick and it is just as easy to subset after you have the table in
hand.

``` r
v <- get_node_var(x, var = 'zeta')
v
```

    ## # A tibble: 138,567 × 2
    ##     node      zeta
    ##    <int> <dbl[1d]>
    ##  1     1    -0.240
    ##  2     2    -0.265
    ##  3     3    -0.280
    ##  4     4    -0.300
    ##  5     5    -0.325
    ##  6     6    -0.336
    ##  7     7    -0.354
    ##  8     8    -0.374
    ##  9     9    -0.370
    ## 10    10    -0.388
    ## # ℹ 138,557 more rows
…
The each element in the mesh is defined by the three nodes identified by
index, “p1”, “p2” and “p3”. The geometry is defined by either “lonlat”
coordinates or projected mercator coordinates, “xy”.

``` r
mesh <- get_mesh_geometry(x, what = 'lonlat') 
mesh
```

    ## Simple feature collection with 252801 features and 4 fields
    ## Geometry type: POLYGON
    ## Dimension:     XY
    ## Bounding box:  xmin: -77.9642 ymin: 31.84 xmax: -56.8508 ymax: 46.14595
    ## Geodetic CRS:  NAD83(2011)
    ## # A tibble: 252,801 × 5
    ##     elem    p1    p2    p3                                              geometry
    ##    <int> <int> <int> <int>                                         <POLYGON [°]>
    ##  1     1   260     1   259 ((-59.8902 46.09442, -59.81069 46.14595, -59.82598 4…
    ##  2     2   259     1     2 ((-59.82598 46.0583, -59.81069 46.14595, -59.75268 4…
    ##  3     3   259     2     3 ((-59.82598 46.0583, -59.75268 46.09011, -59.70132 4…
    ##  4     4     3   258   259 ((-59.70132 46.03855, -59.78878 46.00403, -59.82598 …
    ##  5     5   258     3   257 ((-59.78878 46.00403, -59.70132 46.03855, -59.72971 …
    ##  6     6     4   257     3 ((-59.63753 45.9757, -59.72971 45.94034, -59.70132 4…
    ##  7     7     4   256   257 ((-59.63753 45.9757, -59.65802 45.86837, -59.72971 4…
    ##  8     8   256     4     5 ((-59.65802 45.86837, -59.63753 45.9757, -59.56369 4…
    ##  9     9   255   256     5 ((-59.59155 45.78925, -59.65802 45.86837, -59.56369 …
    ## 10    10     5     6   255 ((-59.56369 45.90162, -59.48374 45.8194, -59.59155 4…
    ## # ℹ 252,791 more rows
…
